<?xml version="1.0" encoding="UTF-8" standalone="no"?>
<svg
   xmlns:dc="http://purl.org/dc/elements/1.1/"
   xmlns:cc="http://creativecommons.org/ns#"
   xmlns:rdf="http://www.w3.org/1999/02/22-rdf-syntax-ns#"
   xmlns:svg="http://www.w3.org/2000/svg"
   xmlns="http://www.w3.org/2000/svg"
   xmlns:sodipodi="http://sodipodi.sourceforge.net/DTD/sodipodi-0.dtd"
   xmlns:inkscape="http://www.inkscape.org/namespaces/inkscape"
   version="1.1"
   id="svg32935"
   viewBox="0 0 472.19385 464.75269"
   height="464.75269"
   width="472.19385"
   sodipodi:docname="gallery.svg"
   inkscape:version="0.92.5 (2060ec1f9f, 2020-04-08)">
  <title
     id="title834">clipboard</title>
  <sodipodi:namedview
     pagecolor="#ffffff"
     bordercolor="#666666"
     borderopacity="1"
     objecttolerance="10"
     gridtolerance="10"
     guidetolerance="10"
     inkscape:pageopacity="0"
     inkscape:pageshadow="2"
     inkscape:window-width="2163"
     inkscape:window-height="1500"
     id="namedview7"
     showgrid="false"
     inkscape:zoom="1.3858725"
     inkscape:cx="351.96203"
     inkscape:cy="355.53065"
     inkscape:window-x="8228"
     inkscape:window-y="378"
     inkscape:window-maximized="0"
     inkscape:current-layer="svg32935"
     fit-margin-top="0"
     fit-margin-left="0"
     fit-margin-right="0"
     fit-margin-bottom="0"
     units="px" />
  <defs
     id="defs32937" />
  <metadata
     id="metadata32940">
    <rdf:RDF>
      <cc:Work
         rdf:about="">
        <dc:format>image/svg+xml</dc:format>
        <dc:type
           rdf:resource="http://purl.org/dc/dcmitype/StillImage" />
        <dc:title>clipboard</dc:title>
        <cc:license
           rdf:resource="http://creativecommons.org/publicdomain/zero/1.0/" />
        <dc:creator>
          <cc:Agent>
            <dc:title>Andrew Stone</dc:title>
          </cc:Agent>
        </dc:creator>
      </cc:Work>
      <cc:License
         rdf:about="http://creativecommons.org/publicdomain/zero/1.0/">
        <cc:permits
           rdf:resource="http://creativecommons.org/ns#Reproduction" />
        <cc:permits
           rdf:resource="http://creativecommons.org/ns#Distribution" />
        <cc:permits
           rdf:resource="http://creativecommons.org/ns#DerivativeWorks" />
      </cc:License>
    </rdf:RDF>
  </metadata>
  <rect
     style="opacity:0.75;fill:none;fill-opacity:1;stroke:#000000;stroke-width:8.8125;stroke-linecap:round;stroke-linejoin:round;stroke-miterlimit:4;stroke-dasharray:none;stroke-dashoffset:0;stroke-opacity:1"
     id="rect895"
     width="463.38135"
     height="455.94019"
     x="4.40625"
     y="4.40625"
     inkscape:label="outer" />
  <rect
     style="opacity:0.75;fill:none;fill-opacity:1;stroke:#000000;stroke-width:12.5;stroke-linecap:round;stroke-linejoin:round;stroke-miterlimit:4;stroke-dasharray:none;stroke-dashoffset:0;stroke-opacity:1"
     id="rect895-8"
     width="420.76382"
     height="419.41086"
     x="25.715015"
     y="22.670898"
     inkscape:label="inner" />
  <path
     style="fill:#ececec;fill-opacity:1;fill-rule:evenodd;stroke:#000000;stroke-width:12.5;stroke-linecap:butt;stroke-linejoin:miter;stroke-miterlimit:4;stroke-dasharray:none;stroke-opacity:1"
     d="m 446.81706,304.08207 c -73.73513,-39.91169 -94.70568,-81.85277 -94.70568,-81.85277 0,0 1.58573,-18.50169 -54.11752,1.35293 -34.1617,12.17645 -11.16175,22.15436 -58.09179,38.55874 32.21684,38.05139 109.50344,68.99985 109.50344,68.99985 0,0 -82.41496,-41.83554 -103.25903,-58.30123 -24.45519,-19.31828 -96.84341,-82.99003 -107.79934,-97.96314 -20.29408,-27.73523 -111.61741,35.1764 -111.61741,35.1764 L 25.715015,442.08177 H 446.47886 Z"
     id="path914"
     inkscape:connector-curvature="0"
     sodipodi:nodetypes="ccsccsscccc"
     inkscape:label="mtns" />
  <circle
     style="opacity:0.75;fill:#ffffff;fill-opacity:1;stroke:#ffffff;stroke-width:12.5;stroke-linecap:round;stroke-linejoin:round;stroke-miterlimit:4;stroke-dasharray:none;stroke-dashoffset:0;stroke-opacity:1"
     id="path916"
     cx="375.78781"
     cy="99.111923"
     r="26.382296"
     inkscape:label="sun" />
</svg>
