<?xml version="1.0" encoding="UTF-8" standalone="no"?>
<svg
   xmlns:dc="http://purl.org/dc/elements/1.1/"
   xmlns:cc="http://creativecommons.org/ns#"
   xmlns:rdf="http://www.w3.org/1999/02/22-rdf-syntax-ns#"
   xmlns:svg="http://www.w3.org/2000/svg"
   xmlns="http://www.w3.org/2000/svg"
   xmlns:sodipodi="http://sodipodi.sourceforge.net/DTD/sodipodi-0.dtd"
   xmlns:inkscape="http://www.inkscape.org/namespaces/inkscape"
   version="1.1"
   viewBox="0 0 136.484 135.994"
   space="preserve"
   style="enable-background:new 0 0 136.484 135.994"
   id="Layer_1"
   sodipodi:docname="plus.svg"
   inkscape:version="0.92.5 (2060ec1f9f, 2020-04-08)">
  <sodipodi:namedview
     pagecolor="#ffffff"
     bordercolor="#666666"
     borderopacity="1"
     objecttolerance="10"
     gridtolerance="10"
     guidetolerance="10"
     inkscape:pageopacity="0"
     inkscape:pageshadow="2"
     inkscape:window-width="1680"
     inkscape:window-height="1541"
     id="namedview4657"
     showgrid="false"
     inkscape:zoom="6.9414825"
     inkscape:cx="84.132057"
     inkscape:cy="51.592768"
     inkscape:window-x="5653"
     inkscape:window-y="477"
     inkscape:window-maximized="0"
     inkscape:current-layer="Layer_1" />
  <defs
     id="defs24">
    <radialGradient
       id="XMLID_2_"
       gradientUnits="userSpaceOnUse"
       cy="36.195"
       cx="52.408001"
       r="105.16">
      <stop
         id="stop8"
         style="stop-color:#D1F593"
         offset="0" />
      <stop
         id="stop10"
         style="stop-color:#81CE09"
         offset="1" />
    </radialGradient>
  </defs>
  <path
     inkscape:connector-curvature="0"
     id="path12"
     style="fill:#8b69cb;fill-opacity:1"
     d="M 88.759,126.64 V 102.366 90.261 c 0,-2.35 1.353,-1.482 3.599,-1.482 9.931,0 19.864,0 29.797,-0.002 3.059,0 6.41,0.399 9.089,-1.409 4.131,-2.791 3.64,-7.45 3.64,-11.765 0,-6.67 2.961,-22.258 -3.643,-26.719 -5.771,-3.898 -18.467,-1.411 -24.9,-1.411 -2.933,0 -17.579,1.794 -17.579,-1.483 0,-9.625 0,-19.249 -0.002,-28.873 C 88.76,9.169 88.737,1.349 78.411,1.349 H 64.185 c -3.513,0 -8.332,-0.769 -11.684,0.65 -7.721,3.266 -5.047,17.326 -5.047,23.847 0,1.712 0.272,21.627 -0.249,21.627 H 20.629 c -7.028,0 -19.301,-1.94 -19.299,8.622 0,8.11 10e-4,16.221 10e-4,24.331 0,10.633 13.667,8.354 20.558,8.354 2.072,0 25.565,-0.267 25.565,0.25 0,10.036 10e-4,20.071 10e-4,30.106 0,3.248 -0.659,7.626 0.648,10.721 2.284,5.405 7.696,5.046 12.526,5.046 7.352,-0.01 28.126,3.72 28.121,-8.27" />
  <path
     inkscape:connector-curvature="0"
     id="path5"
     style="fill:#302974;fill-opacity:1"
     d="m 52.021,131.81 c 0,2.605 28.656,1.382 31.602,0.817 4.888,-0.935 -9.083,-3.122 -10.272,-3.176 -1.909,-0.09 -21.333,-0.91 -21.33,2.36" />
  <path
     inkscape:connector-curvature="0"
     id="path14"
     style="fill:#3d33a0;fill-opacity:1"
     d="m 7.252,52.4 c 2.606,0 1.384,28.656 0.819,31.603 C 7.133,88.892 4.947,74.92 4.893,73.732 4.808,71.825 3.991,52.397 7.252,52.4" />
  <path
     inkscape:connector-curvature="0"
     id="path16"
     style="fill:#97acd9;fill-opacity:1"
     d="m 131.42,52.4 c 2.605,0 1.385,28.656 0.821,31.603 -0.938,4.889 -3.126,-9.083 -3.18,-10.271 -0.08,-1.907 -0.89,-21.335 2.36,-21.332" />
  <path
     inkscape:connector-curvature="0"
     id="path18"
     style="fill:#3d33a0;fill-opacity:1"
     d="m 52.523,84.487 c 2.662,0.003 1.336,41.25 0.805,45.053 -0.355,2.529 -1.286,2.272 -1.821,-0.051 -1.221,-5.301 -1.267,-10.991 -1.39,-16.4 -0.051,-2.2 -0.788,-28.606 2.406,-28.603" />
  <path
     inkscape:connector-curvature="0"
     id="path20"
     style="fill:#9796d9;fill-opacity:1"
     d="m 90.715,52.665 c 0,2.655 35.874,1.289 39.165,0.886 1.56,-0.192 3.561,-0.983 0.977,-1.775 -4.489,-1.373 -9.612,-1.36 -14.254,-1.5 -2.1,-0.063 -25.895,-0.848 -25.895,2.389" />
  <path
     inkscape:connector-curvature="0"
     id="path22"
     style="fill:#9796d9;fill-opacity:1"
     d="m 7.252,52.4 c 0.003,-2.251 42.618,-1.799 42.62,0.001 0,1.925 -42.614,5.579 -42.62,-0.001" />
  <path
     inkscape:connector-curvature="0"
     id="path24"
     style="fill:#9796d9;fill-opacity:1"
     d="m 52.021,7.633 c 0,2.606 28.656,1.382 31.602,0.818 C 88.51,7.516 74.54,5.328 73.35,5.274 71.442,5.189 52.018,4.371 52.021,7.633" />
  <path
     inkscape:connector-curvature="0"
     id="path26"
     style="fill:#797cc2;fill-opacity:1"
     d="m 52.021,7.633 c -2.248,0 -1.804,42.302 -10e-4,42.302 1.96,10e-4 5.559,-42.302 10e-4,-42.302" />
  <path
     inkscape:connector-curvature="0"
     id="path28"
     style="fill:#97acd9;fill-opacity:1"
     d="m 84.796,6.671 c -2.252,0 -1.262,24.248 -1.252,26.235 0.018,3.709 -0.439,8.161 0.687,11.765 0.868,2.78 2.254,-4.511 2.307,-4.922 0.425,-3.336 3.336,-33.084 -1.742,-33.078" />
  <path
     inkscape:connector-curvature="0"
     id="path30"
     style="fill:#675994;fill-opacity:1"
     d="m 84.795,85.796 c -1.948,-0.005 -1.256,23.107 -1.256,25.114 0,5.748 -0.267,11.604 0.327,17.332 0.328,3.175 1.466,3.464 2.171,0.211 0.702,-3.23 3.572,-42.665 -1.242,-42.654" />
  <path
     inkscape:connector-curvature="0"
     id="path32"
     style="fill:#302974;fill-opacity:1"
     d="m 7.702,83.765 c -0.003,-2.246 24.25,-1.262 26.234,-1.25 3.711,0.018 8.162,-0.439 11.765,0.685 2.782,0.868 -4.512,2.256 -4.92,2.308 -3.334,0.424 -33.09,3.329 -33.079,-1.743" />
  <path
     inkscape:connector-curvature="0"
     id="path34"
     style="fill:#673f9a;fill-opacity:1"
     d="m 87,83.769 c -0.002,-1.971 22.219,-1.261 24.128,-1.261 5.747,0 11.603,-0.263 17.332,0.33 3.173,0.328 3.465,1.465 0.212,2.172 -3.23,0.703 -41.67,3.654 -41.67,-1.241" />
  <path
     inkscape:connector-curvature="0"
     id="path36"
     style="fill:#675994;fill-opacity:1"
     d="M 87.034,3.068 C 82.509,-1.456 72.53,0.36 66.782,0.36 59.82,0.36 48.575,-1.561 46.662,7.744 45.443,13.672 46.474,20.66 46.474,26.655 v 19.832 c -8.833,-0.008 -17.665,-0.001 -26.499,0 -7.965,0 -19.625,-1.492 -19.625,10.034 0,7.876 -0.785,16.157 0,23.991 0,11.92 15.899,9.243 23.558,9.243 2.705,0 22.568,-1.096 22.568,0.987 v 29.068 c 0,8.969 1.344,16.066 12.167,16.066 h 14.632 c 3.909,0.002 8.925,0.745 12.349,-1.544 6.667,-4.459 4.118,-18.015 4.118,-24.75 V 94.496 c 0,-3.111 -1.063,-4.742 2.208,-4.742 h 29.917 c 3.367,0 6.975,0.41 9.92,-1.581 4.464,-3.017 4.08,-7.903 4.08,-12.576 0,-7.165 2.961,-22.769 -4.08,-27.53 -2.945,-1.994 -6.557,-1.582 -9.92,-1.582 H 105.431 91.95 c -3.271,0 -2.208,-1.633 -2.208,-4.743 V 11.843 c 0,-3.245 -0.23,-6.307 -2.707,-8.783 M 2.314,80.503 c 0,-7.999 -10e-4,-15.994 -10e-4,-23.993 0,-10.355 12.502,-8.07 19.41,-8.07 h 26.47 c 0.51,0 0.244,-19.771 0.244,-21.453 0,-5.939 -2.714,-20.589 4.082,-23.931 2.918,-1.435 7.306,-0.742 10.422,-0.742 5.158,0.002 10.314,0.003 15.471,0.003 10.646,0 9.368,9.181 9.368,16.95 v 28.227 c 0,3.364 37.98,-1.799 43.395,2.547 5.7,4.578 2.729,20.288 2.729,26.59 0,4.008 0.2,8.305 -4.083,10.41 -2.694,1.323 -6.632,0.741 -9.521,0.741 H 90.532 c -2.088,0 -2.753,-0.648 -2.753,1.454 v 13.268 c 0,7.827 0.983,16.351 0,24.124 0,10.686 -19.483,7.277 -26.028,7.277 -4.356,-0.002 -9.753,0.843 -12.347,-3.645 -1.585,-2.744 -0.967,-6.932 -0.967,-9.959 V 89.236 c 0,-6.964 -46.137,7.253 -46.124,-8.724" />
  <metadata
     id="metadata21">
    <rdf:RDF>
      <cc:Work>
        <dc:format>image/svg+xml</dc:format>
        <dc:type
           rdf:resource="http://purl.org/dc/dcmitype/StillImage" />
        <cc:license
           rdf:resource="http://creativecommons.org/publicdomain/zero/1.0/" />
        <dc:publisher>
          <cc:Agent
             rdf:about="http://openclipart.org/">
            <dc:title>Openclipart</dc:title>
          </cc:Agent>
        </dc:publisher>
        <dc:title></dc:title>
        <dc:date>2010-03-28T09:23:50</dc:date>
        <dc:description>Drawing by Francesco 'Architetto' Rollandin. From OCAL 0.18 release.</dc:description>
        <dc:source>https://openclipart.org/detail/34693/architetto----tasto-2-by-anonymous</dc:source>
        <dc:creator>
          <cc:Agent>
            <dc:title>Anonymous</dc:title>
          </cc:Agent>
        </dc:creator>
        <dc:subject>
          <rdf:Bag>
            <rdf:li>add</rdf:li>
            <rdf:li>cross</rdf:li>
            <rdf:li>green</rdf:li>
            <rdf:li>icon</rdf:li>
            <rdf:li>maths</rdf:li>
            <rdf:li>plus</rdf:li>
            <rdf:li>sign</rdf:li>
            <rdf:li>symbol</rdf:li>
          </rdf:Bag>
        </dc:subject>
      </cc:Work>
      <cc:License
         rdf:about="http://creativecommons.org/publicdomain/zero/1.0/">
        <cc:permits
           rdf:resource="http://creativecommons.org/ns#Reproduction" />
        <cc:permits
           rdf:resource="http://creativecommons.org/ns#Distribution" />
        <cc:permits
           rdf:resource="http://creativecommons.org/ns#DerivativeWorks" />
      </cc:License>
    </rdf:RDF>
  </metadata>
</svg>
