<?xml version="1.0" encoding="UTF-8" standalone="no"?>
<svg
   xmlns:dc="http://purl.org/dc/elements/1.1/"
   xmlns:cc="http://creativecommons.org/ns#"
   xmlns:rdf="http://www.w3.org/1999/02/22-rdf-syntax-ns#"
   xmlns:svg="http://www.w3.org/2000/svg"
   xmlns="http://www.w3.org/2000/svg"
   id="svg2"
   viewBox="0 0 494.31 504.71"
   version="1.0">
  <defs
     id="defs4">
    <linearGradient
       x1="595.51"
       y1="509.84"
       x2="595.51"
       gradientUnits="userSpaceOnUse"
       y2="329.22"
       id="linearGradient3441">
      <stop
         offset="0"
         style="stop-color:#ff8800"
         id="stop3380" />
      <stop
         offset="1"
         style="stop-color:#742500"
         id="stop3382" />
    </linearGradient>
  </defs>
  <g
     transform="translate(-4.2857 -1.7902)"
     id="layer1">
    <g
       transform="matrix(1,0,0,-1,0,509.14486)"
       id="g3446">
      <path
         d="m 119.51,12.551 v 176.7 l -97.606,-0.42 113.37,152.17 113.37,152.17 115.71,-151.11 115.77,-151.18 -102.13,-0.5 V 12.551 l -258.48,10e-4 z"
         style="fill:#f28888;fill-rule:evenodd;stroke:#8b0000;stroke-width:18.09399986"
         id="rect2568" />
      <path
         transform="matrix(2.2617,0,0,2.2617,-1095.4,-704.91)"
         d="m 549.16,407.83 h -31.775 l 76.869,102.01 78.062,-101.88 -32.875,-0.125 V 329.21 H 549.16 Z"
         style="fill:url(#linearGradient3441);fill-rule:evenodd"
         id="path3364" />
    </g>
  </g>
  <metadata
     id="metadata12">
    <rdf:RDF>
      <cc:Work>
        <dc:format>image/svg+xml</dc:format>
        <dc:type
           rdf:resource="http://purl.org/dc/dcmitype/StillImage" />
        <cc:license
           rdf:resource="http://creativecommons.org/licenses/publicdomain/" />
        <dc:publisher>
          <cc:Agent
             rdf:about="http://openclipart.org/">
            <dc:title>Openclipart</dc:title>
          </cc:Agent>
        </dc:publisher>
        <dc:title></dc:title>
        <dc:date>2013-03-15T16:52:03</dc:date>
        <dc:description>This is a green download arrow I made by changing bugmenot's nice icon into something simpler by removing blur and gloss and a curved corner, making it angled.</dc:description>
        <dc:source>https://openclipart.org/detail/176328/simple-green-download-arrow-by-qubodup-176328</dc:source>
        <dc:creator>
          <cc:Agent>
            <dc:title>qubodup</dc:title>
          </cc:Agent>
        </dc:creator>
        <dc:subject>
          <rdf:Bag>
            <rdf:li>arrow</rdf:li>
            <rdf:li>download</rdf:li>
            <rdf:li>downloading</rdf:li>
            <rdf:li>file</rdf:li>
            <rdf:li>glossy</rdf:li>
            <rdf:li>green</rdf:li>
            <rdf:li>icon</rdf:li>
            <rdf:li>inviting</rdf:li>
            <rdf:li>positive</rdf:li>
          </rdf:Bag>
        </dc:subject>
      </cc:Work>
      <cc:License
         rdf:about="http://creativecommons.org/licenses/publicdomain/">
        <cc:permits
           rdf:resource="http://creativecommons.org/ns#Reproduction" />
        <cc:permits
           rdf:resource="http://creativecommons.org/ns#Distribution" />
        <cc:permits
           rdf:resource="http://creativecommons.org/ns#DerivativeWorks" />
      </cc:License>
    </rdf:RDF>
  </metadata>
</svg>
