<?xml version="1.0" encoding="UTF-8" standalone="no"?>
<svg
   xmlns:dc="http://purl.org/dc/elements/1.1/"
   xmlns:cc="http://creativecommons.org/ns#"
   xmlns:rdf="http://www.w3.org/1999/02/22-rdf-syntax-ns#"
   xmlns:svg="http://www.w3.org/2000/svg"
   xmlns="http://www.w3.org/2000/svg"
   xmlns:sodipodi="http://sodipodi.sourceforge.net/DTD/sodipodi-0.dtd"
   xmlns:inkscape="http://www.inkscape.org/namespaces/inkscape"
   height="129.44617"
   width="129.49924"
   version="1.1"
   viewBox="0 0 129.49924 129.44617"
   id="svg2"
   sodipodi:docname="shopping.svg"
   inkscape:version="0.92.3 (2405546, 2018-03-11)">
  <sodipodi:namedview
     pagecolor="#ffffff"
     bordercolor="#666666"
     borderopacity="1"
     objecttolerance="10"
     gridtolerance="10"
     guidetolerance="10"
     inkscape:pageopacity="0"
     inkscape:pageshadow="2"
     inkscape:window-width="772"
     inkscape:window-height="480"
     id="namedview2952"
     showgrid="false"
     inkscape:zoom="1.8231517"
     inkscape:cx="64.749619"
     inkscape:cy="64.723083"
     inkscape:window-x="6067"
     inkscape:window-y="176"
     inkscape:window-maximized="0"
     inkscape:current-layer="svg2" />
  <defs
     id="defs2289" />
  <g
     transform="translate(-62.97296,-832.56915)"
     id="g7018">
    <path
       id="path3822"
       d="m 88.110453,878.84087 c -7.238712,1.5103 -14.948482,-0.69599 -17.260592,-1.35337 -1.481514,-0.44396 -7.133081,-2.70244 -6.868767,2.15272 1.369598,25.16956 2.248406,41.94153 7.594037,52.19307 6.755883,15.60482 3.8767,21.27456 6.012948,25.46139 26.567341,6.93405 59.781861,0.47652 85.773221,3.20788 18.35186,4.63683 16.25417,-29.91835 20.27598,-42.39346 0.58664,-8.61408 12.40136,-35.12335 1.48447,-43.13963 -8.51034,-1.00465 -4.16126,0.35264 -15.44478,1.75563 -10.10696,-66.27024 -82.592677,-49.25904 -81.566517,2.11577 z m 70.047777,-0.96278 c -13.38983,0.0664 -38.91058,1.49211 -57.42385,1.3435 -2.317041,-43.59436 65.29429,-49.04618 57.42385,-1.3435 z"
       style="opacity:0.8;fill:#c8c8c8;fill-opacity:1;stroke:#404040;stroke-width:2;stroke-miterlimit:4;stroke-dasharray:none;stroke-opacity:1" />
  </g>
  <metadata
     id="metadata2284">
    <rdf:RDF>
      <cc:Work>
        <dc:format>image/svg+xml</dc:format>
        <dc:type
           rdf:resource="http://purl.org/dc/dcmitype/StillImage" />
        <cc:license
           rdf:resource="http://creativecommons.org/publicdomain/zero/1.0/" />
        <dc:publisher>
          <cc:Agent
             rdf:about="http://openclipart.org/">
            <dc:title></dc:title>
          </cc:Agent>
        </dc:publisher>
        <dc:title></dc:title>
        <dc:date>July 30, 2020</dc:date>
        <dc:description></dc:description>
        <dc:source></dc:source>
        <dc:creator>
          <cc:Agent>
            <dc:title>Andrew Stone</dc:title>
          </cc:Agent>
        </dc:creator>
        <dc:subject>
          <rdf:Bag>
            <rdf:li>shopping bag icon</rdf:li>
          </rdf:Bag>
        </dc:subject>
      </cc:Work>
      <cc:License
         rdf:about="http://creativecommons.org/publicdomain/zero/1.0/">
        <cc:permits
           rdf:resource="http://creativecommons.org/ns#Reproduction" />
        <cc:permits
           rdf:resource="http://creativecommons.org/ns#Distribution" />
        <cc:permits
           rdf:resource="http://creativecommons.org/ns#DerivativeWorks" />
      </cc:License>
    </rdf:RDF>
  </metadata>
</svg>
