<?xml version="1.0" encoding="UTF-8" standalone="no"?>
<!-- Created with Inkscape (http://www.inkscape.org/) -->

<svg
   xmlns:dc="http://purl.org/dc/elements/1.1/"
   xmlns:cc="http://creativecommons.org/ns#"
   xmlns:rdf="http://www.w3.org/1999/02/22-rdf-syntax-ns#"
   xmlns:svg="http://www.w3.org/2000/svg"
   xmlns="http://www.w3.org/2000/svg"
   xmlns:sodipodi="http://sodipodi.sourceforge.net/DTD/sodipodi-0.dtd"
   xmlns:inkscape="http://www.inkscape.org/namespaces/inkscape"
   width="512"
   height="512"
   viewBox="0 0 135.46666 135.46667"
   version="1.1"
   id="svg8"
   sodipodi:docname="syncing.svg"
   inkscape:version="0.92.5 (2060ec1f9f, 2020-04-08)">
  <defs
     id="defs2" />
  <sodipodi:namedview
     id="base"
     pagecolor="#ffffff"
     bordercolor="#666666"
     borderopacity="1.0"
     inkscape:pageopacity="0.0"
     inkscape:pageshadow="2"
     inkscape:zoom="0.98994949"
     inkscape:cx="-33.664804"
     inkscape:cy="-332.31109"
     inkscape:document-units="mm"
     inkscape:current-layer="layer1"
     showgrid="false"
     units="px"
     inkscape:window-width="3222"
     inkscape:window-height="1786"
     inkscape:window-x="7967"
     inkscape:window-y="168"
     inkscape:window-maximized="0" />
  <metadata
     id="metadata5">
    <rdf:RDF>
      <cc:Work
         rdf:about="">
        <dc:format>image/svg+xml</dc:format>
        <dc:type
           rdf:resource="http://purl.org/dc/dcmitype/StillImage" />
        <dc:title />
      </cc:Work>
    </rdf:RDF>
  </metadata>
  <g
     inkscape:label="Layer 1"
     inkscape:groupmode="layer"
     id="layer1"
     transform="translate(0,-161.53332)">
    <path
       style="fill:none;fill-rule:evenodd;stroke:#7b00a2;stroke-width:7;stroke-linecap:butt;stroke-linejoin:miter;stroke-miterlimit:4;stroke-dasharray:none;stroke-opacity:1"
       d="m 64.144685,215.75005 c -73.7663872,2.13815 -116.796782,77.24089 -116.796782,77.24089 -8.161807,25.52554 -67.634223,44.58139 -51.850293,93.27707 5.078123,17.37252 27.796036,29.93418 27.796035,64.41195 -10e-7,51.31852 -1.324251,53.82259 25.123335,72.96458 21.131298,15.29423 88.466215,0.53455 125.082139,15.76891 36.615911,15.23434 87.681151,2.65203 106.907811,-16.30346 16.72104,-16.48522 21.11429,-60.93744 29.66692,-77.77542 14.56575,-28.67632 41.9613,-56.39387 31.27052,-82.31901 -13.28846,-32.22453 -37.41773,-44.09947 -46.50489,-74.83547 -13.33362,-45.09904 -54.00075,-68.16926 -72.96458,-69.22281 -19.24341,-1.06908 -57.730215,-3.20723 -57.730215,-3.20723 z"
       id="path1586"
       inkscape:connector-curvature="0"
       sodipodi:nodetypes="cccssssssssc" />
    <path
       style="opacity:0;fill:none;fill-opacity:1;stroke:#e49200;stroke-width:2;stroke-linecap:round;stroke-linejoin:round;stroke-miterlimit:4;stroke-dasharray:none;stroke-dashoffset:0;stroke-opacity:1"
       id="path1584"
       sodipodi:type="arc"
       sodipodi:cx="68.020096"
       sodipodi:cy="388.27252"
       sodipodi:rx="168.7807"
       sodipodi:ry="168.7807"
       sodipodi:start="0"
       sodipodi:end="6.2831082"
       d="M 236.8008,388.27252 A 168.7807,168.7807 0 0 1 68.023349,557.05322 168.7807,168.7807 0 0 1 -100.7606,388.27903 168.7807,168.7807 0 0 1 68.010335,219.49182 168.7807,168.7807 0 0 1 236.8008,388.25951 l -168.780704,0.013 z" />
    <g
       style="fill:#dfbc00;fill-opacity:1;stroke:#faf9c1;stroke-width:2;stroke-linecap:square;stroke-linejoin:round;stroke-miterlimit:4;stroke-dasharray:none;stroke-dashoffset:0;stroke-opacity:1"
       id="g920"
       inkscape:label="nugget"
       transform="matrix(0.63030975,0,0,0.63582698,39.533257,-32.851427)">
      <path
         sodipodi:nodetypes="ccccc"
         inkscape:connector-curvature="0"
         id="path870"
         d="M 83.922629,447.47271 23.342887,373.8884 84.96168,346.38627 l 61.46749,26.88789 z"
         inkscape:transform-center-y="-3.0821891"
         inkscape:transform-center-x="3.312913"
         inkscape:label="main" />
      <path
         sodipodi:nodetypes="cccc"
         inkscape:connector-curvature="0"
         id="path881"
         d="m 47.890944,368.96273 36.650581,-16.20751 36.987035,15.49689 c 0,0 -71.164646,0.71062 -73.637616,0.71062 z"
         inkscape:transform-center-y="0.02078198"
         inkscape:transform-center-x="2.2469421"
         style="opacity:0.978;fill:#c3b510;fill-opacity:1;stroke:#ebedcb;stroke-width:1;stroke-linecap:square;stroke-linejoin:round;stroke-miterlimit:4;stroke-dasharray:none;stroke-dashoffset:0;stroke-opacity:1"
         inkscape:label="cutout" />
      <path
         inkscape:connector-curvature="0"
         id="path892"
         d="m 23.342887,373.8884 123.086283,-0.61424 v 0"
         style="fill:none;fill-rule:evenodd;stroke:#fbfbd6;stroke-width:1;stroke-linecap:butt;stroke-linejoin:miter;stroke-miterlimit:4;stroke-dasharray:none;stroke-opacity:1"
         inkscape:label="horizline" />
    </g>
    <g
       style="fill:#dfbc00;fill-opacity:1;stroke:#faf9c1;stroke-width:2;stroke-linecap:square;stroke-linejoin:round;stroke-miterlimit:4;stroke-dasharray:none;stroke-dashoffset:0;stroke-opacity:1"
       id="g920-5"
       inkscape:label="nugget"
       transform="matrix(0.4847902,-0.21925561,0.21925561,0.4847902,-124.97369,59.039524)">
      <path
         sodipodi:nodetypes="ccccc"
         inkscape:connector-curvature="0"
         id="path870-1"
         d="M 83.922629,447.47271 23.342887,373.8884 84.96168,346.38627 l 61.46749,26.88789 z"
         inkscape:transform-center-y="-3.0821891"
         inkscape:transform-center-x="3.312913"
         inkscape:label="main" />
      <path
         sodipodi:nodetypes="cccc"
         inkscape:connector-curvature="0"
         id="path881-1"
         d="m 47.890944,368.96273 36.650581,-16.20751 36.987035,15.49689 c 0,0 -71.164646,0.71062 -73.637616,0.71062 z"
         inkscape:transform-center-y="0.02078198"
         inkscape:transform-center-x="2.2469421"
         style="opacity:0.978;fill:#c3b510;fill-opacity:1;stroke:#ebedcb;stroke-width:1;stroke-linecap:square;stroke-linejoin:round;stroke-miterlimit:4;stroke-dasharray:none;stroke-dashoffset:0;stroke-opacity:1"
         inkscape:label="cutout" />
      <path
         inkscape:connector-curvature="0"
         id="path892-0"
         d="m 23.342887,373.8884 123.086283,-0.61424 v 0"
         style="fill:none;fill-rule:evenodd;stroke:#fbfbd6;stroke-width:1;stroke-linecap:butt;stroke-linejoin:miter;stroke-miterlimit:4;stroke-dasharray:none;stroke-opacity:1"
         inkscape:label="horizline" />
    </g>
    <g
       style="fill:#dfbc00;fill-opacity:1;stroke:#faf9c1;stroke-width:2;stroke-linecap:square;stroke-linejoin:round;stroke-miterlimit:4;stroke-dasharray:none;stroke-dashoffset:0;stroke-opacity:1"
       id="g920-50"
       inkscape:label="nugget"
       transform="matrix(0.45307292,-0.47191107,0.47191107,0.45307292,-286.66238,166.63115)">
      <path
         sodipodi:nodetypes="ccccc"
         inkscape:connector-curvature="0"
         id="path870-6"
         d="M 83.922629,447.47271 23.342887,373.8884 84.96168,346.38627 l 61.46749,26.88789 z"
         inkscape:transform-center-y="-3.0821891"
         inkscape:transform-center-x="3.312913"
         inkscape:label="main" />
      <path
         sodipodi:nodetypes="cccc"
         inkscape:connector-curvature="0"
         id="path881-4"
         d="m 47.890944,368.96273 36.650581,-16.20751 36.987035,15.49689 c 0,0 -71.164646,0.71062 -73.637616,0.71062 z"
         inkscape:transform-center-y="0.02078198"
         inkscape:transform-center-x="2.2469421"
         style="opacity:0.978;fill:#c3b510;fill-opacity:1;stroke:#ebedcb;stroke-width:1;stroke-linecap:square;stroke-linejoin:round;stroke-miterlimit:4;stroke-dasharray:none;stroke-dashoffset:0;stroke-opacity:1"
         inkscape:label="cutout" />
      <path
         inkscape:connector-curvature="0"
         id="path892-6"
         d="m 23.342887,373.8884 123.086283,-0.61424 v 0"
         style="fill:none;fill-rule:evenodd;stroke:#fbfbd6;stroke-width:1;stroke-linecap:butt;stroke-linejoin:miter;stroke-miterlimit:4;stroke-dasharray:none;stroke-opacity:1"
         inkscape:label="horizline" />
    </g>
    <g
       style="fill:#dfbc00;fill-opacity:1;stroke:#faf9c1;stroke-width:2;stroke-linecap:square;stroke-linejoin:round;stroke-miterlimit:4;stroke-dasharray:none;stroke-dashoffset:0;stroke-opacity:1"
       id="g920-50-6"
       inkscape:label="nugget"
       transform="matrix(-0.11855859,-0.51868914,0.51868914,-0.11855859,-301.65777,472.01147)">
      <path
         sodipodi:nodetypes="ccccc"
         inkscape:connector-curvature="0"
         id="path870-6-2"
         d="M 83.922629,447.47271 23.342887,373.8884 84.96168,346.38627 l 61.46749,26.88789 z"
         inkscape:transform-center-y="-3.0821891"
         inkscape:transform-center-x="3.312913"
         inkscape:label="main" />
      <path
         sodipodi:nodetypes="cccc"
         inkscape:connector-curvature="0"
         id="path881-4-8"
         d="m 47.890944,368.96273 36.650581,-16.20751 36.987035,15.49689 c 0,0 -71.164646,0.71062 -73.637616,0.71062 z"
         inkscape:transform-center-y="0.02078198"
         inkscape:transform-center-x="2.2469421"
         style="opacity:0.978;fill:#c3b510;fill-opacity:1;stroke:#ebedcb;stroke-width:1;stroke-linecap:square;stroke-linejoin:round;stroke-miterlimit:4;stroke-dasharray:none;stroke-dashoffset:0;stroke-opacity:1"
         inkscape:label="cutout" />
      <path
         inkscape:connector-curvature="0"
         id="path892-6-4"
         d="m 23.342887,373.8884 123.086283,-0.61424 v 0"
         style="fill:none;fill-rule:evenodd;stroke:#fbfbd6;stroke-width:1;stroke-linecap:butt;stroke-linejoin:miter;stroke-miterlimit:4;stroke-dasharray:none;stroke-opacity:1"
         inkscape:label="horizline" />
    </g>
    <g
       style="fill:#dfbc00;fill-opacity:1;stroke:#faf9c1;stroke-width:2;stroke-linecap:square;stroke-linejoin:round;stroke-miterlimit:4;stroke-dasharray:none;stroke-dashoffset:0;stroke-opacity:1"
       id="g920-50-2"
       inkscape:label="nugget"
       transform="matrix(-0.18385027,-0.68719077,0.68719077,-0.18385027,-334.55105,605.09442)">
      <path
         sodipodi:nodetypes="ccccc"
         inkscape:connector-curvature="0"
         id="path870-6-4"
         d="M 83.922629,447.47271 23.342887,373.8884 84.96168,346.38627 l 61.46749,26.88789 z"
         inkscape:transform-center-y="-3.0821891"
         inkscape:transform-center-x="3.312913"
         inkscape:label="main" />
      <path
         sodipodi:nodetypes="cccc"
         inkscape:connector-curvature="0"
         id="path881-4-0"
         d="m 47.890944,368.96273 36.650581,-16.20751 36.987035,15.49689 c 0,0 -71.164646,0.71062 -73.637616,0.71062 z"
         inkscape:transform-center-y="0.02078198"
         inkscape:transform-center-x="2.2469421"
         style="opacity:0.978;fill:#c3b510;fill-opacity:1;stroke:#ebedcb;stroke-width:1;stroke-linecap:square;stroke-linejoin:round;stroke-miterlimit:4;stroke-dasharray:none;stroke-dashoffset:0;stroke-opacity:1"
         inkscape:label="cutout" />
      <path
         inkscape:connector-curvature="0"
         id="path892-6-6"
         d="m 23.342887,373.8884 123.086283,-0.61424 v 0"
         style="fill:none;fill-rule:evenodd;stroke:#fbfbd6;stroke-width:1;stroke-linecap:butt;stroke-linejoin:miter;stroke-miterlimit:4;stroke-dasharray:none;stroke-opacity:1"
         inkscape:label="horizline" />
    </g>
    <g
       style="fill:#dfbc00;fill-opacity:1;stroke:#faf9c1;stroke-width:2;stroke-linecap:square;stroke-linejoin:round;stroke-miterlimit:4;stroke-dasharray:none;stroke-dashoffset:0;stroke-opacity:1"
       id="g920-50-29"
       inkscape:label="nugget"
       transform="matrix(-0.53202621,0.00653205,-0.00653205,-0.53202621,63.790531,741.7505)">
      <path
         sodipodi:nodetypes="ccccc"
         inkscape:connector-curvature="0"
         id="path870-6-9"
         d="M 83.922629,447.47271 23.342887,373.8884 84.96168,346.38627 l 61.46749,26.88789 z"
         inkscape:transform-center-y="-3.0821891"
         inkscape:transform-center-x="3.312913"
         inkscape:label="main" />
      <path
         sodipodi:nodetypes="cccc"
         inkscape:connector-curvature="0"
         id="path881-4-08"
         d="m 47.890944,368.96273 36.650581,-16.20751 36.987035,15.49689 c 0,0 -71.164646,0.71062 -73.637616,0.71062 z"
         inkscape:transform-center-y="0.02078198"
         inkscape:transform-center-x="2.2469421"
         style="opacity:0.978;fill:#c3b510;fill-opacity:1;stroke:#ebedcb;stroke-width:1;stroke-linecap:square;stroke-linejoin:round;stroke-miterlimit:4;stroke-dasharray:none;stroke-dashoffset:0;stroke-opacity:1"
         inkscape:label="cutout" />
      <path
         inkscape:connector-curvature="0"
         id="path892-6-1"
         d="m 23.342887,373.8884 123.086283,-0.61424 v 0"
         style="fill:none;fill-rule:evenodd;stroke:#fbfbd6;stroke-width:1;stroke-linecap:butt;stroke-linejoin:miter;stroke-miterlimit:4;stroke-dasharray:none;stroke-opacity:1"
         inkscape:label="horizline" />
    </g>
    <g
       style="fill:#dfbc00;fill-opacity:1;stroke:#faf9c1;stroke-width:2;stroke-linecap:square;stroke-linejoin:round;stroke-miterlimit:4;stroke-dasharray:none;stroke-dashoffset:0;stroke-opacity:1"
       id="g920-50-1"
       inkscape:label="nugget"
       transform="matrix(-0.63741418,0.29552954,-0.29552954,-0.63741418,313.05938,765.46531)">
      <path
         sodipodi:nodetypes="ccccc"
         inkscape:connector-curvature="0"
         id="path870-6-0"
         d="M 83.922629,447.47271 23.342887,373.8884 84.96168,346.38627 l 61.46749,26.88789 z"
         inkscape:transform-center-y="-3.0821891"
         inkscape:transform-center-x="3.312913"
         inkscape:label="main" />
      <path
         sodipodi:nodetypes="cccc"
         inkscape:connector-curvature="0"
         id="path881-4-3"
         d="m 47.890944,368.96273 36.650581,-16.20751 36.987035,15.49689 c 0,0 -71.164646,0.71062 -73.637616,0.71062 z"
         inkscape:transform-center-y="0.02078198"
         inkscape:transform-center-x="2.2469421"
         style="opacity:0.978;fill:#c3b510;fill-opacity:1;stroke:#ebedcb;stroke-width:1;stroke-linecap:square;stroke-linejoin:round;stroke-miterlimit:4;stroke-dasharray:none;stroke-dashoffset:0;stroke-opacity:1"
         inkscape:label="cutout" />
      <path
         inkscape:connector-curvature="0"
         id="path892-6-40"
         d="m 23.342887,373.8884 123.086283,-0.61424 v 0"
         style="fill:none;fill-rule:evenodd;stroke:#fbfbd6;stroke-width:1;stroke-linecap:butt;stroke-linejoin:miter;stroke-miterlimit:4;stroke-dasharray:none;stroke-opacity:1"
         inkscape:label="horizline" />
    </g>
    <g
       style="fill:#dfbc00;fill-opacity:1;stroke:#faf9c1;stroke-width:2;stroke-linecap:square;stroke-linejoin:round;stroke-miterlimit:4;stroke-dasharray:none;stroke-dashoffset:0;stroke-opacity:1"
       id="g920-50-1-4"
       inkscape:label="nugget"
       transform="matrix(-0.16277803,0.50655491,-0.50655491,-0.16277803,422.28531,482.18091)">
      <path
         sodipodi:nodetypes="ccccc"
         inkscape:connector-curvature="0"
         id="path870-6-0-4"
         d="M 83.922629,447.47271 23.342887,373.8884 84.96168,346.38627 l 61.46749,26.88789 z"
         inkscape:transform-center-y="-3.0821891"
         inkscape:transform-center-x="3.312913"
         inkscape:label="main" />
      <path
         sodipodi:nodetypes="cccc"
         inkscape:connector-curvature="0"
         id="path881-4-3-9"
         d="m 47.890944,368.96273 36.650581,-16.20751 36.987035,15.49689 c 0,0 -71.164646,0.71062 -73.637616,0.71062 z"
         inkscape:transform-center-y="0.02078198"
         inkscape:transform-center-x="2.2469421"
         style="opacity:0.978;fill:#c3b510;fill-opacity:1;stroke:#ebedcb;stroke-width:1;stroke-linecap:square;stroke-linejoin:round;stroke-miterlimit:4;stroke-dasharray:none;stroke-dashoffset:0;stroke-opacity:1"
         inkscape:label="cutout" />
      <path
         inkscape:connector-curvature="0"
         id="path892-6-40-9"
         d="m 23.342887,373.8884 123.086283,-0.61424 v 0"
         style="fill:none;fill-rule:evenodd;stroke:#fbfbd6;stroke-width:1;stroke-linecap:butt;stroke-linejoin:miter;stroke-miterlimit:4;stroke-dasharray:none;stroke-opacity:1"
         inkscape:label="horizline" />
    </g>
    <g
       style="fill:#dfbc00;fill-opacity:1;stroke:#faf9c1;stroke-width:2;stroke-linecap:square;stroke-linejoin:round;stroke-miterlimit:4;stroke-dasharray:none;stroke-dashoffset:0;stroke-opacity:1"
       id="g920-50-1-3"
       inkscape:label="nugget"
       transform="matrix(0.05808848,0.83213861,-0.83213861,0.05808848,563.02467,270.21368)">
      <path
         sodipodi:nodetypes="ccccc"
         inkscape:connector-curvature="0"
         id="path870-6-0-6"
         d="M 83.922629,447.47271 23.342887,373.8884 84.96168,346.38627 l 61.46749,26.88789 z"
         inkscape:transform-center-y="-3.0821891"
         inkscape:transform-center-x="3.312913"
         inkscape:label="main" />
      <path
         sodipodi:nodetypes="cccc"
         inkscape:connector-curvature="0"
         id="path881-4-3-0"
         d="m 47.890944,368.96273 36.650581,-16.20751 36.987035,15.49689 c 0,0 -71.164646,0.71062 -73.637616,0.71062 z"
         inkscape:transform-center-y="0.02078198"
         inkscape:transform-center-x="2.2469421"
         style="opacity:0.978;fill:#c3b510;fill-opacity:1;stroke:#ebedcb;stroke-width:1;stroke-linecap:square;stroke-linejoin:round;stroke-miterlimit:4;stroke-dasharray:none;stroke-dashoffset:0;stroke-opacity:1"
         inkscape:label="cutout" />
      <path
         inkscape:connector-curvature="0"
         id="path892-6-40-5"
         d="m 23.342887,373.8884 123.086283,-0.61424 v 0"
         style="fill:none;fill-rule:evenodd;stroke:#fbfbd6;stroke-width:1;stroke-linecap:butt;stroke-linejoin:miter;stroke-miterlimit:4;stroke-dasharray:none;stroke-opacity:1"
         inkscape:label="horizline" />
    </g>
    <g
       style="fill:#dfbc00;fill-opacity:1;stroke:#faf9c1;stroke-width:2;stroke-linecap:square;stroke-linejoin:round;stroke-miterlimit:4;stroke-dasharray:none;stroke-dashoffset:0;stroke-opacity:1"
       id="g920-50-1-0"
       inkscape:label="nugget"
       transform="matrix(0.29918032,0.43998374,-0.43998374,0.29918032,330.7223,106.9548)">
      <path
         sodipodi:nodetypes="ccccc"
         inkscape:connector-curvature="0"
         id="path870-6-0-2"
         d="M 83.922629,447.47271 23.342887,373.8884 84.96168,346.38627 l 61.46749,26.88789 z"
         inkscape:transform-center-y="-3.0821891"
         inkscape:transform-center-x="3.312913"
         inkscape:label="main" />
      <path
         sodipodi:nodetypes="cccc"
         inkscape:connector-curvature="0"
         id="path881-4-3-94"
         d="m 47.890944,368.96273 36.650581,-16.20751 36.987035,15.49689 c 0,0 -71.164646,0.71062 -73.637616,0.71062 z"
         inkscape:transform-center-y="0.02078198"
         inkscape:transform-center-x="2.2469421"
         style="opacity:0.978;fill:#c3b510;fill-opacity:1;stroke:#ebedcb;stroke-width:1;stroke-linecap:square;stroke-linejoin:round;stroke-miterlimit:4;stroke-dasharray:none;stroke-dashoffset:0;stroke-opacity:1"
         inkscape:label="cutout" />
      <path
         inkscape:connector-curvature="0"
         id="path892-6-40-3"
         d="m 23.342887,373.8884 123.086283,-0.61424 v 0"
         style="fill:none;fill-rule:evenodd;stroke:#fbfbd6;stroke-width:1;stroke-linecap:butt;stroke-linejoin:miter;stroke-miterlimit:4;stroke-dasharray:none;stroke-opacity:1"
         inkscape:label="horizline" />
    </g>
  </g>
</svg>
